…
    pert_data %>% 
      filter(is.na(EVTYPE))

    ## # A tibble: 0 x 6
    ## # ... with 6 variables: EVTYPE <chr>, FATALITIES <dbl>, PROPDMG <dbl>,
    ## #   PROPDMGEXP <chr>, CROPDMG <dbl>, CROPDMGEXP <chr>

    pert_data %>% 
      filter(is.na(PROPDMGEXP))

    ## # A tibble: 465,934 x 6
    ##    EVTYPE    FATALITIES PROPDMG PROPDMGEXP CROPDMG CROPDMGEXP
    ##    <chr>          <dbl>   <dbl> <chr>        <dbl> <chr>     
    ##  1 TSTM WIND          0       0 <NA>             0 <NA>      
    ##  2 HAIL               0       0 <NA>             0 <NA>      
    ##  3 HAIL               0       0 <NA>             0 <NA>      
    ##  4 TSTM WIND          0       0 <NA>             0 <NA>      
    ##  5 HAIL               0       0 <NA>             0 <NA>      
    ##  6 TSTM WIND          0       0 <NA>             0 <NA>      
    ##  7 TSTM WIND          0       0 <NA>             0 <NA>      
    ##  8 HAIL               0       0 <NA>             0 <NA>      
    ##  9 HAIL               0       0 <NA>             0 <NA>      
    ## 10 HAIL               0       0 <NA>             0 <NA>      
    ## # ... with 465,924 more rows
…
    pert_data %>% 
      filter( (is.na(CROPDMGEXP) & CROPDMG != 0) | (is.na(PROPDMGEXP) & PROPDMG != 0) )

    ## # A tibble: 79 x 6
    ##    EVTYPE             FATALITIES PROPDMG PROPDMGEXP CROPDMG CROPDMGEXP
    ##    <chr>                   <dbl>   <dbl> <chr>        <dbl> <chr>     
    ##  1 FLASH FLOOD WINDS           0    0.41 <NA>             0 ?         
    ##  2 TORNADO                     0    3    <NA>             0 <NA>      
    ##  3 THUNDERSTORM WIND           0    2    <NA>             0 <NA>      
    ##  4 THUNDERSTORM WINDS          0    4    <NA>             0 <NA>      
    ##  5 THUNDERSTORM WINDS          0    4    <NA>             0 <NA>      
    ##  6 FLASH FLOOD                 0   10    <NA>             0 <NA>      
    ##  7 FLASH FLOOD                 0   10    <NA>             0 <NA>      
    ##  8 FLASH FLOOD                 0   10    <NA>             0 <NA>      
    ##  9 THUNDERSTORM WINDS          0    4    <NA>             0 <NA>      
    ## 10 THUNDERSTORM WINDS          0    5    <NA>             0 <NA>      
    ## # ... with 69 more rows
…
    ## 
    ##      -      ?      +      0      1      2      3      4      5      6 
    ##      1      8      5    216     25     13      4      4     28      4 
    ##      7      8      B      h      H      K      m      M   <NA> 
    ##      5      1     40      1      6 424665      7  11330 465934

Results
=======

    storm_data %>% 
      group_by(EVTYPE) %>% 
      summarise(FATALITIES = sum(FATALITIES), INJURIES = sum(INJURIES)) %>% 
      arrange(desc(FATALITIES))

    ## # A tibble: 977 x 3
    ##    EVTYPE         FATALITIES INJURIES
    ##    <chr>               <dbl>    <dbl>
    ##  1 TORNADO              5633    91346
    ##  2 EXCESSIVE HEAT       1903     6525
    ##  3 FLASH FLOOD           978     1777
    ##  4 HEAT                  937     2100
    ##  5 LIGHTNING             816     5230
    ##  6 TSTM WIND             504     6957
    ##  7 FLOOD                 470     6789
    ##  8 RIP CURRENT           368      232
    ##  9 HIGH WIND             248     1137
    ## 10 AVALANCHE             224      170
    ## # ... with 967 more rows
…
    ## Warning in ConvertDmg(PROPDMG, PROPDMGEXP): NAs introduced by coercion

    ## Warning in ConvertDmg(PROPDMG, PROPDMGEXP): NAs introduced by coercion

    ## Warning in ConvertDmg(PROPDMG, PROPDMGEXP): NAs introduced by coercion

    ## Warning in ConvertDmg(PROPDMG, PROPDMGEXP): NAs introduced by coercion

    ## Warning in ConvertDmg(CROPDMG, CROPDMGEXP): NAs introduced by coercion

    ## Warning in ConvertDmg(CROPDMG, CROPDMGEXP): NAs introduced by coercion

    ## # A tibble: 977 x 3
    ##    EVTYPE                      PROPDMG    CROPDMG
    ##    <chr>                         <dbl>      <dbl>
    ##  1 HIGH WINDS/COLD           610000000 2005000000
    ##  2 FROST                            NA 1065000000
    ##  3 HURRICANE ERIN            358000000  146000000
    ##  4 EXCESSIVE WETNESS                NA  142000000
    ##  5 FLOOD/RAIN/WINDS                 NA  112800000
    ##  6 COLD AND WET CONDITIONS          NA   66000000
    ##  7 Damaging Freeze                  NA   64100000
    ##  8 Early Frost                      NA   42000000
    ##  9 SEVERE THUNDERSTORM WINDS    175000   29000000
    ## 10 Extreme Cold                     NA   20000000
    ## # ... with 967 more rows
…
